=============================================================================
______                                _     _____              _
| ___ \                              | |   |_   _|            | |
| |_/ /_ _ _   _ _ __ ___   ___ _ __ | |_    | |_ __ __ _  ___| | _____ _ __
|  __/ _` | | | | '_ ` _ \ / _ \ '_ \| __|   | | '__/ _` |/ __| |/ / _ \ '__|
| | | (_| | |_| | | | | | |  __/ | | | |_    | | | | (_| | (__|   <  __/ |
\_|  \__,_|\__, |_| |_| |_|\___|_| |_|\__|   \_/_|  \__,_|\___|_|\_\___|_|
            __/ |
           |___/

=============================================================================
